module gitlab.com/mb-saces/mxtokenizer

go 1.19

require (
	golang.org/x/term v0.9.0
	maunium.net/go/mautrix v0.15.3
)

require (
	github.com/mattn/go-colorable v0.1.13 // indirect
	github.com/mattn/go-isatty v0.0.19 // indirect
	github.com/rs/zerolog v1.29.1 // indirect
	github.com/tidwall/gjson v1.14.4 // indirect
	github.com/tidwall/match v1.1.1 // indirect
	github.com/tidwall/pretty v1.2.1 // indirect
	github.com/tidwall/sjson v1.2.5 // indirect
	golang.org/x/crypto v0.10.0 // indirect
	golang.org/x/exp v0.0.0-20230522175609-2e198f4a06a1 // indirect
	golang.org/x/net v0.11.0 // indirect
	golang.org/x/sys v0.9.0 // indirect
	maunium.net/go/maulogger/v2 v2.4.1 // indirect
)
